…
Factor Management
-----------------

### Drop Oceania

First, let's take a look at the dataset:

``` r
gapminder
```

    ## # A tibble: 1,704 x 6
    ##    country     continent  year lifeExp      pop gdpPercap
    ##    <fct>       <fct>     <int>   <dbl>    <int>     <dbl>
    ##  1 Afghanistan Asia       1952    28.8  8425333      779.
    ##  2 Afghanistan Asia       1957    30.3  9240934      821.
    ##  3 Afghanistan Asia       1962    32.0 10267083      853.
    ##  4 Afghanistan Asia       1967    34.0 11537966      836.
    ##  5 Afghanistan Asia       1972    36.1 13079460      740.
    ##  6 Afghanistan Asia       1977    38.4 14880372      786.
    ##  7 Afghanistan Asia       1982    39.9 12881816      978.
    ##  8 Afghanistan Asia       1987    40.8 13867957      852.
    ##  9 Afghanistan Asia       1992    41.7 16317921      649.
    ## 10 Afghanistan Asia       1997    41.8 22227415      635.
    ## # ... with 1,694 more rows

So now, we know that we are dropping the 'Oceania' level from the 'continent' factor

Let's take a look what would happen when we drop Oceania:

``` r
gapminder %>% 
  filter(continent == 'Oceania')
```

    ## # A tibble: 24 x 6
    ##    country   continent  year lifeExp      pop gdpPercap
    ##    <fct>     <fct>     <int>   <dbl>    <int>     <dbl>
    ##  1 Australia Oceania    1952    69.1  8691212    10040.
    ##  2 Australia Oceania    1957    70.3  9712569    10950.
    ##  3 Australia Oceania    1962    70.9 10794968    12217.
    ##  4 Australia Oceania    1967    71.1 11872264    14526.
    ##  5 Australia Oceania    1972    71.9 13177000    16789.
    ##  6 Australia Oceania    1977    73.5 14074100    18334.
    ##  7 Australia Oceania    1982    74.7 15184200    19477.
    ##  8 Australia Oceania    1987    76.3 16257249    21889.
    ##  9 Australia Oceania    1992    77.6 17481977    23425.
    ## 10 Australia Oceania    1997    78.8 18565243    26998.
    ## # ... with 14 more rows
…
### Actually dropping Oceania

``` r
(gapminder_no_oceania = gapminder %>% 
  filter(continent != 'Oceania'))
```

    ## # A tibble: 1,680 x 6
    ##    country     continent  year lifeExp      pop gdpPercap
    ##    <fct>       <fct>     <int>   <dbl>    <int>     <dbl>
    ##  1 Afghanistan Asia       1952    28.8  8425333      779.
    ##  2 Afghanistan Asia       1957    30.3  9240934      821.
    ##  3 Afghanistan Asia       1962    32.0 10267083      853.
    ##  4 Afghanistan Asia       1967    34.0 11537966      836.
    ##  5 Afghanistan Asia       1972    36.1 13079460      740.
    ##  6 Afghanistan Asia       1977    38.4 14880372      786.
    ##  7 Afghanistan Asia       1982    39.9 12881816      978.
    ##  8 Afghanistan Asia       1987    40.8 13867957      852.
    ##  9 Afghanistan Asia       1992    41.7 16317921      649.
    ## 10 Afghanistan Asia       1997    41.8 22227415      635.
    ## # ... with 1,670 more rows
…
``` r
gapminder_no_oceania$continent %>% 
  levels()
```

    ## [1] "Africa"   "Americas" "Asia"     "Europe"   "Oceania"

We still have Oceania! We need to call the `droplevels()` function to *actually* drop Oceania.

``` r
(gapminder_no_oceania = gapminder_no_oceania %>% 
  droplevels())
```

    ## # A tibble: 1,680 x 6
    ##    country     continent  year lifeExp      pop gdpPercap
    ##    <fct>       <fct>     <int>   <dbl>    <int>     <dbl>
    ##  1 Afghanistan Asia       1952    28.8  8425333      779.
    ##  2 Afghanistan Asia       1957    30.3  9240934      821.
    ##  3 Afghanistan Asia       1962    32.0 10267083      853.
    ##  4 Afghanistan Asia       1967    34.0 11537966      836.
    ##  5 Afghanistan Asia       1972    36.1 13079460      740.
    ##  6 Afghanistan Asia       1977    38.4 14880372      786.
    ##  7 Afghanistan Asia       1982    39.9 12881816      978.
    ##  8 Afghanistan Asia       1987    40.8 13867957      852.
    ##  9 Afghanistan Asia       1992    41.7 16317921      649.
    ## 10 Afghanistan Asia       1997    41.8 22227415      635.
    ## # ... with 1,670 more rows
…
Now, we see that Oceania is actually gone for good.

Creating a smaller version of the dataset to read/write from the disk (dataset filtered down to data from 2002) and to reorder factors

``` r
gapminder_2002 = gapminder %>% 
  filter(year == 2002)
```

``` r
(gapminder_asia_2002 = gapminder_2002 %>% 
  filter(continent == 'Asia'))
```

    ## # A tibble: 33 x 6
    ##    country          continent  year lifeExp        pop gdpPercap
    ##    <fct>            <fct>     <int>   <dbl>      <int>     <dbl>
    ##  1 Afghanistan      Asia       2002    42.1   25268405      727.
    ##  2 Bahrain          Asia       2002    74.8     656397    23404.
    ##  3 Bangladesh       Asia       2002    62.0  135656790     1136.
    ##  4 Cambodia         Asia       2002    56.8   12926707      896.
    ##  5 China            Asia       2002    72.0 1280400000     3119.
    ##  6 Hong Kong, China Asia       2002    81.5    6762476    30209.
    ##  7 India            Asia       2002    62.9 1034172547     1747.
    ##  8 Indonesia        Asia       2002    68.6  211060000     2874.
    ##  9 Iran             Asia       2002    69.5   66907826     9241.
    ## 10 Iraq             Asia       2002    57.0   24001816     4391.
    ## # ... with 23 more rows
…
